Uni/grad/MAM/fpga/fpga1/quartus-files/simulation/qsim/hw01_simakma5.msim.vcd
$comment
	File created using the following command:
		vcd file hw01_simakma5.msim.vcd -direction
$end
$date
	Sun Oct 30 17:42:59 2022
$end
$version
	ModelSim Version 10.5b
$end
$timescale
	1ps
$end

$scope module hw01_simakma5_vlg_vec_tst $end
$var reg 1 ! CLK $end
$var reg 1 " KEY0 $end
$var reg 1 # KEY1 $end
$var reg 1 $ SW0 $end
$var reg 1 % SW1 $end
$var wire 1 & LED0 $end
$var wire 1 ' LED1 $end
$var wire 1 ( LED2 $end
$var wire 1 ) LED3 $end
$var wire 1 * LED4 $end
$var wire 1 + LED5 $end
$var wire 1 , LED6 $end
$var wire 1 - LED7 $end
$var wire 1 . test1s $end
$var wire 1 / test10ms $end
$var wire 1 0 test10s $end
$var wire 1 1 test100ms $end

$scope module i1 $end
$var wire 1 2 gnd $end
$var wire 1 3 vcc $end
$var wire 1 4 unknown $end
$var tri1 1 5 devclrn $end
$var tri1 1 6 devpor $end
$var tri1 1 7 devoe $end
$var wire 1 8 ~QUARTUS_CREATED_GND~I_combout $end
$var wire 1 9 ~QUARTUS_CREATED_UNVM~~busy $end
$var wire 1 : ~QUARTUS_CREATED_ADC1~~eoc $end
$var wire 1 ; ~QUARTUS_CREATED_ADC2~~eoc $end
$var wire 1 < LED0~output_o $end
$var wire 1 = LED1~output_o $end
$var wire 1 > LED2~output_o $end
$var wire 1 ? LED3~output_o $end
$var wire 1 @ LED4~output_o $end
$var wire 1 A LED5~output_o $end
$var wire 1 B LED6~output_o $end
$var wire 1 C LED7~output_o $end
$var wire 1 D test10s~output_o $end
$var wire 1 E test10ms~output_o $end
$var wire 1 F test100ms~output_o $end
$var wire 1 G test1s~output_o $end
$var wire 1 H SW1~input_o $end
$var wire 1 I CLK~input_o $end
$var wire 1 J CLK~inputclkctrl_outclk $end
$var wire 1 K inst4|inst1|inst12~feeder_combout $end
$var wire 1 L KEY1~input_o $end
$var wire 1 M KEY1~inputclkctrl_outclk $end
$var wire 1 N inst4|inst1|inst12~q $end
$var wire 1 O inst4|inst1|inst13~combout $end
$var wire 1 P inst4|inst1|inst10~feeder_combout $end
$var wire 1 Q inst4|inst1|inst10~q $end
$var wire 1 R inst4|inst1|inst11~feeder_combout $end
$var wire 1 S inst4|inst1|inst11~q $end
$var wire 1 T inst4|inst1|inst17~combout $end
$var wire 1 U inst4|inst1|inst16~q $end
$var wire 1 V inst4|inst1|inst15~combout $end
$var wire 1 W inst4|inst7|inst|inst~0_combout $end
$var wire 1 X inst4|inst7|inst|inst~feeder_combout $end
$var wire 1 Y inst4|inst7|inst|inst~q $end
$var wire 1 Z inst4|inst7|inst|inst~clkctrl_outclk $end
$var wire 1 [ inst4|inst7|inst2|inst12~feeder_combout $end
$var wire 1 \ inst4|inst7|inst2|inst12~q $end
$var wire 1 ] inst4|inst7|inst2|inst13~combout $end
$var wire 1 ^ inst4|inst7|inst2|inst10~feeder_combout $end
$var wire 1 _ inst4|inst7|inst2|inst10~q $end
$var wire 1 ` inst4|inst7|inst2|inst11~feeder_combout $end
$var wire 1 a inst4|inst7|inst2|inst11~q $end
$var wire 1 b inst4|inst7|inst2|inst17~combout $end
$var wire 1 c inst4|inst7|inst2|inst16~q $end
$var wire 1 d inst4|inst7|inst2|inst15~combout $end
$var wire 1 e inst4|inst8|inst|inst~0_combout $end
$var wire 1 f inst4|inst8|inst|inst~feeder_combout $end
$var wire 1 g inst4|inst8|inst|inst~q $end
$var wire 1 h inst4|inst8|inst|inst~clkctrl_outclk $end
$var wire 1 i inst4|inst8|inst2|inst12~feeder_combout $end
$var wire 1 j inst4|inst8|inst2|inst12~q $end
$var wire 1 k inst4|inst8|inst2|inst13~combout $end
$var wire 1 l inst4|inst8|inst2|inst10~feeder_combout $end
$var wire 1 m inst4|inst8|inst2|inst10~q $end
$var wire 1 n inst4|inst8|inst2|inst11~feeder_combout $end
$var wire 1 o inst4|inst8|inst2|inst11~q $end
$var wire 1 p inst4|inst8|inst2|inst17~combout $end
$var wire 1 q inst4|inst8|inst2|inst16~q $end
$var wire 1 r inst4|inst8|inst2|inst15~combout $end
$var wire 1 s inst4|inst9|inst|inst~0_combout $end
$var wire 1 t inst4|inst9|inst|inst~feeder_combout $end
$var wire 1 u inst4|inst9|inst|inst~q $end
$var wire 1 v inst4|inst9|inst|inst~clkctrl_outclk $end
$var wire 1 w inst4|inst9|inst2|inst13~combout $end
$var wire 1 x inst4|inst9|inst2|inst10~feeder_combout $end
$var wire 1 y inst4|inst9|inst2|inst10~q $end
$var wire 1 z inst4|inst9|inst2|inst11~feeder_combout $end
$var wire 1 { inst4|inst9|inst2|inst11~q $end
$var wire 1 | inst4|inst9|inst2|inst12~feeder_combout $end
$var wire 1 } inst4|inst9|inst2|inst12~q $end
$var wire 1 ~ inst4|inst9|inst2|inst17~combout $end
$var wire 1 !! inst4|inst9|inst2|inst16~q $end
$var wire 1 "! inst4|inst9|inst2|inst15~combout $end
$var wire 1 #! SW0~input_o $end
$var wire 1 $! inst3~2_combout $end
$var wire 1 %! inst3~1_combout $end
$var wire 1 &! inst3~0_combout $end
$var wire 1 '! KEY0~input_o $end
$var wire 1 (! inst5~0_combout $end
$var wire 1 )! inst5~q $end
$var wire 1 *! inst3~combout $end
$var wire 1 +! inst3~clkctrl_outclk $end
$var wire 1 ,! inst7|inst1~0_combout $end
$var wire 1 -! inst7|inst1~q $end
$var wire 1 .! inst7|inst3~0_combout $end
$var wire 1 /! inst7|inst3~q $end
$var wire 1 0! inst7|inst6~0_combout $end
$var wire 1 1! inst7|inst6~q $end
$var wire 1 2! inst7|inst8~0_combout $end
$var wire 1 3! inst7|inst8~q $end
$var wire 1 4! inst7|inst7~combout $end
$var wire 1 5! inst7|inst10~0_combout $end
$var wire 1 6! inst7|inst10~q $end
$var wire 1 7! inst7|inst12~0_combout $end
$var wire 1 8! inst7|inst12~q $end
$var wire 1 9! inst7|inst14~0_combout $end
$var wire 1 :! inst7|inst14~q $end
$var wire 1 ;! inst7|inst16~0_combout $end
$var wire 1 <! inst7|inst16~1_combout $end
$var wire 1 =! inst7|inst16~q $end
$upscope $end
$upscope $end
$enddefinitions $end
#0
$dumpvars
0!
0"
1#
0$
0%
0&
0'
0(
0)
0*
0+
0,
0-
1.
1/
10
11
02
13
x4
15
16
17
08
z9
z:
z;
0<
0=
0>
0?
0@
0A
0B
0C
1D
1E
1F
1G
0H
0I
0J
0K
1L
1M
0N
1O
1P
0Q
0R
0S
0T
0U
1V
1W
1X
0Y
0Z
0[
0\
1]
1^
0_
0`
0a
0b
0c
1d
1e
1f
0g
0h
0i
0j
1k
1l
0m
0n
0o
0p
0q
1r
1s
1t
0u
0v
1w
1x
0y
0z
0{
0|
0}
0~
0!!
0"!
0#!
0$!
0%!
1&!
0'!
1(!
0)!
0*!
0+!
1,!
0-!
0.!
0/!
00!
01!
02!
03!
04!
05!
06!
07!
08!
09!
0:!
1;!
0<!
0=!
$end
#10000
1!
1I
1J
1Q
1T
1R
#20000
0!
0I
0J
1U
#30000
1!
1I
1J
1S
1K
#40000
0!
0I
0J
#50000
1!
1I
1J
1N
0O
0V
0E
1%!
0/
0P
0&!
#60000
0!
0I
0J
#70000
1!
1I
1J
0Q
0R
#80000
0!
0I
0J
#90000
1!
1I
1J
0S
1O
0T
0K
1P
#100000
0!
0I
0J
0U
1V
1E
0%!
1/
1&!
1Y
1Z
0W
0X
1_
1b
1`
#110000
1!
1I
1J
1Q
0N
1T
1R
#120000
0!
0I
0J
1U
#130000
1!
1I
1J
1S
1K
#140000
0!
0I
0J
#150000
1!
1I
1J
1N
0O
0V
0E
1%!
0/
0P
0&!
#160000
0!
0I
0J
#170000
1!
1I
1J
0Q
0R
#180000
0!
0I
0J
#190000
1!
1I
1J
0S
1O
0T
0K
1P
#200000
0!
0I
0J
0U
1V
1E
0%!
1/
1&!
0Y
0Z
1W
1X
1c
#210000
1!
1I
1J
1Q
0N
1T
1R
#220000
0!
0I
0J
1U
#230000
1!
1I
1J
1S
1K
#240000
0!
0I
0J
#250000
1!
1I
1J
1N
0O
0V
0E
1%!
0/
0P
0&!
#260000
0!
0I
0J
#270000
1!
1I
1J
0Q
0R
#280000
0!
0I
0J
#290000
1!
1I
1J
0S
1O
0T
0K
1P
#300000
0!
0I
0J
0U
1V
1E
0%!
1/
1&!
1Y
1Z
0W
0X
1a
1[
#310000
1!
1I
1J
1Q
0N
1T
1R
#320000
0!
0I
0J
1U
#330000
1!
1I
1J
1S
1K
#340000
0!
0I
0J
#350000
1!
1I
1J
1N
0O
0V
0E
1%!
0/
0P
0&!
#360000
0!
0I
0J
#370000
1!
1I
1J
0Q
0R
#380000
0!
0I
0J
#390000
1!
1I
1J
0S
1O
0T
0K
1P
#400000
0!
0I
0J
0U
1V
1E
0%!
1/
1&!
0Y
0Z
1W
1X
#410000
1!
1I
1J
1Q
0N
1T
1R
#420000
0!
0I
0J
1U
#430000
1!
1I
1J
1S
1K
#440000
0!
0I
0J
#450000
1!
1I
1J
1N
0O
0V
0E
1%!
0/
0P
0&!
#460000
0!
0I
0J
#470000
1!
1I
1J
0Q
0R
#480000
0!
0I
0J
#490000
1!
1I
1J
0S
1O
0T
0K
1P
#500000
0!
0I
0J
0U
1V
1E
0%!
1/
1&!
1Y
1Z
0W
0X
1\
0]
0d
0F
01
0^
#510000
1!
1I
1J
1Q
0N
1T
1R
#520000
0!
0I
0J
1U
#530000
1!
1I
1J
1S
1K
#540000
0!
0I
0J
#550000
1!
1I
1J
1N
0O
0V
0E
1%!
0/
0P
0&!
#560000
0!
0I
0J
#570000
1!
1I
1J
0Q
0R
#580000
0!
0I
0J
#590000
1!
1I
1J
0S
1O
0T
0K
1P
#600000
0!
0I
0J
0U
1V
1E
0%!
1/
1&!
0Y
0Z
1W
1X
#610000
1!
1I
1J
1Q
0N
1T
1R
#620000
0!
0I
0J
1U
#630000
1!
1I
1J
1S
1K
#640000
0!
0I
0J
#650000
1!
1I
1J
1N
0O
0V
0E
1%!
0/
0P
0&!
#660000
0!
0I
0J
#670000
1!
1I
1J
0Q
0R
#680000
0!
0I
0J
#690000
1!
1I
1J
0S
1O
0T
0K
1P
#700000
0!
0I
0J
0U
1V
1E
0%!
1/
1&!
1Y
1Z
0W
0X
0_
0`
#710000
1!
1I
1J
1Q
0N
1T
1R
#720000
0!
0I
0J
1U
#730000
1!
1I
1J
1S
1K
#740000
0!
0I
0J
#750000
1!
1I
1J
1N
0O
0V
0E
1%!
0/
0P
0&!
#760000
0!
0I
0J
#770000
1!
1I
1J
0Q
0R
#780000
0!
0I
0J
#790000
1!
1I
1J
0S
1O
0T
0K
1P
#800000
0!
0I
0J
0U
1V
1E
0%!
1/
1&!
0Y
0Z
1W
1X
#810000
1!
1I
1J
1Q
0N
1T
1R
#820000
0!
0I
0J
1U
#830000
1!
1I
1J
1S
1K
#840000
0!
0I
0J
#850000
1!
1I
1J
1N
0O
0V
0E
1%!
0/
0P
0&!
#860000
0!
0I
0J
#870000
1!
1I
1J
0Q
0R
#880000
0!
0I
0J
#890000
1!
1I
1J
0S
1O
0T
0K
1P
#900000
0!
0I
0J
0U
1V
1E
0%!
1/
1&!
1Y
1Z
0W
0X
0a
1]
0b
0[
1^
#910000
1!
1I
1J
1Q
0N
1T
1R
#920000
0!
0I
0J
1U
#930000
1!
1I
1J
1S
1K
#940000
0!
0I
0J
#950000
1!
1I
1J
1N
0O
0V
0E
1%!
0/
0P
0&!
#960000
0!
0I
0J
#970000
1!
1I
1J
0Q
0R
#980000
0!
0I
0J
#990000
1!
1I
1J
0S
1O
0T
0K
1P
#1000000
0!
0I
0J
0U
1V
1E
0%!
1/
1&!
0Y
0Z
1W
1X
0c
1d
1F
11
1g
1h
0e
0f
1m
1p
1n
#1010000
1!
1I
1J
1Q
0N
1T
1R
#1020000
0!
0I
0J
1U
#1030000
1!
1I
1J
1S
1K
#1040000
0!
0I
0J
#1050000
1!
1I
1J
1N
0O
0V
0E
1%!
0/
0P
0&!
#1060000
0!
0I
0J
#1070000
1!
1I
1J
0Q
0R
#1080000
0!
0I
0J
#1090000
1!
1I
1J
0S
1O
0T
0K
1P
#1100000
0!
0I
0J
0U
1V
1E
0%!
1/
1&!
1Y
1Z
0W
0X
1_
0\
1b
1`
#1110000
1!
1I
1J
1Q
0N
1T
1R
#1120000
0!
0I
0J
1U
#1130000
1!
1I
1J
1S
1K
#1140000
0!
0I
0J
#1150000
1!
1I
1J
1N
0O
0V
0E
1%!
0/
0P
0&!
#1160000
0!
0I
0J
#1170000
1!
1I
1J
0Q
0R
#1180000
0!
0I
0J
#1190000
1!
1I
1J
0S
1O
0T
0K
1P
#1200000
0!
0I
0J
0U
1V
1E
0%!
1/
1&!
0Y
0Z
1W
1X
1c
#1210000
1!
1I
1J
1Q
0N
1T
1R
#1220000
0!
0I
0J
1U
#1230000
1!
1I
1J
1S
1K
#1240000
0!
0I
0J
#1250000
1!
1I
1J
1N
0O
0V
0E
1%!
0/
0P
0&!
#1260000
0!
0I
0J
#1270000
1!
1I
1J
0Q
0R
#1280000
0!
0I
0J
#1290000
1!
1I
1J
0S
1O
0T
0K
1P
#1300000
0!
0I
0J
0U
1V
1E
0%!
1/
1&!
1Y
1Z
0W
0X
1a
1[
#1310000
1!
1I
1J
1Q
0N
1T
1R
#1320000
0!
0I
0J
1U
#1330000
1!
1I
1J
1S
1K
#1340000
0!
0I
0J
#1350000
1!
1I
1J
1N
0O
0V
0E
1%!
0/
0P
0&!
#1360000
0!
0I
0J
#1370000
1!
1I
1J
0Q
0R
#1380000
0!
0I
0J
#1390000
1!
1I
1J
0S
1O
0T
0K
1P
#1400000
0!
0I
0J
0U
1V
1E
0%!
1/
1&!
0Y
0Z
1W
1X
#1410000
1!
1I
1J
1Q
0N
1T
1R
#1420000
0!
0I
0J
1U
#1430000
1!
1I
1J
1S
1K
#1440000
0!
0I
0J
#1450000
1!
1I
1J
1N
0O
0V
0E
1%!
0/
0P
0&!
#1460000
0!
0I
0J
#1470000
1!
1I
1J
0Q
0R
#1480000
0!
0I
0J
#1490000
1!
1I
1J
0S
1O
0T
0K
1P
#1500000
0!
0I
0J
0U
1V
1E
0%!
1/
1&!
1Y
1Z
0W
0X
1\
0]
0d
0F
01
0^
#1510000
1!
1I
1J
1Q
0N
1T
1R
#1520000
0!
0I
0J
1U
#1530000
1!
1I
1J
1S
1K
#1540000
0!
0I
0J
#1550000
1!
1I
1J
1N
0O
0V
0E
1%!
0/
0P
0&!
#1560000
0!
0I
0J
#1570000
1!
1I
1J
0Q
0R
#1580000
0!
0I
0J
#1590000
1!
1I
1J
0S
1O
0T
0K
1P
#1600000
0!
0I
0J
0U
1V
1E
0%!
1/
1&!
0Y
0Z
1W
1X
#1610000
1!
1I
1J
1Q
0N
1T
1R
#1620000
0!
0I
0J
1U
#1630000
1!
1I
1J
1S
1K
#1640000
0!
0I
0J
#1650000
1!
1I
1J
1N
0O
0V
0E
1%!
0/
0P
0&!
#1660000
0!
0I
0J
#1670000
1!
1I
1J
0Q
0R
#1680000
0!
0I
0J
#1690000
1!
1I
1J
0S
1O
0T
0K
1P
#1700000
0!
0I
0J
0U
1V
1E
0%!
1/
1&!
1Y
1Z
0W
0X
0_
0`
#1710000
1!
1I
1J
1Q
0N
1T
1R
#1720000
0!
0I
0J
1U
#1730000
1!
1I
1J
1S
1K
#1740000
0!
0I
0J
#1750000
1!
1I
1J
1N
0O
0V
0E
1%!
0/
0P
0&!
#1760000
0!
0I
0J
#1770000
1!
1I
1J
0Q
0R
#1780000
0!
0I
0J
#1790000
1!
1I
1J
0S
1O
0T
0K
1P
#1800000
0!
0I
0J
0U
1V
1E
0%!
1/
1&!
0Y
0Z
1W
1X
#1810000
1!
1I
1J
1Q
0N
1T
1R
#1820000
0!
0I
0J
1U
#1830000
1!
1I
1J
1S
1K
#1840000
0!
0I
0J
#1850000
1!
1I
1J
1N
0O
0V
0E
1%!
0/
0P
0&!
#1860000
0!
0I
0J
#1870000
1!
1I
1J
0Q
0R
#1880000
0!
0I
0J
#1890000
1!
1I
1J
0S
1O
0T
0K
1P
#1900000
0!
0I
0J
0U
1V
1E
0%!
1/
1&!
1Y
1Z
0W
0X
0a
1]
0b
0[
1^
#1910000
1!
1I
1J
1Q
0N
1T
1R
#1920000
0!
0I
0J
1U
#1930000
1!
1I
1J
1S
1K
#1940000
0!
0I
0J
#1950000
1!
1I
1J
1N
0O
0V
0E
1%!
0/
0P
0&!
#1960000
0!
0I
0J
#1970000
1!
1I
1J
0Q
0R
#1980000
0!
0I
0J
#1990000
1!
1I
1J
0S
1O
0T
0K
1P
#2000000
0!
0I
0J
0U
1V
1E
0%!
1/
1&!
0Y
0Z
1W
1X
0c
1d
1F
11
0g
0h
1e
1f
1q
#2010000
1!
1I
1J
1Q
0N
1T
1R
#2020000
0!
0I
0J
1U
#2030000
1!
1I
1J
1S
1K
#2040000
0!
0I
0J
#2050000
1!
1I
1J
1N
0O
0V
0E
1%!
0/
0P
0&!
#2060000
0!
0I
0J
#2070000
1!
1I
1J
0Q
0R
#2080000
0!
0I
0J
#2090000
1!
1I
1J
0S
1O
0T
0K
1P
#2100000
0!
0I
0J
0U
1V
1E
0%!
1/
1&!
1Y
1Z
0W
0X
1_
0\
1b
1`
#2110000
1!
1I
1J
1Q
0N
1T
1R
#2120000
0!
0I
0J
1U
#2130000
1!
1I
1J
1S
1K
#2140000
0!
0I
0J
#2150000
1!
1I
1J
1N
0O
0V
0E
1%!
0/
0P
0&!
#2160000
0!
0I
0J
#2170000
1!
1I
1J
0Q
0R
#2180000
0!
0I
0J
#2190000
1!
1I
1J
0S
1O
0T
0K
1P
#2200000
0!
0I
0J
0U
1V
1E
0%!
1/
1&!
0Y
0Z
1W
1X
1c
#2210000
1!
1I
1J
1Q
0N
1T
1R
#2220000
0!
0I
0J
1U
#2230000
1!
1I
1J
1S
1K
#2240000
0!
0I
0J
#2250000
1!
1I
1J
1N
0O
0V
0E
1%!
0/
0P
0&!
#2260000
0!
0I
0J
#2270000
1!
1I
1J
0Q
0R
#2280000
0!
0I
0J
#2290000
1!
1I
1J
0S
1O
0T
0K
1P
#2300000
0!
0I
0J
0U
1V
1E
0%!
1/
1&!
1Y
1Z
0W
0X
1a
1[
#2310000
1!
1I
1J
1Q
0N
1T
1R
#2320000
0!
0I
0J
1U
#2330000
1!
1I
1J
1S
1K
#2340000
0!
0I
0J
#2350000
1!
1I
1J
1N
0O
0V
0E
1%!
0/
0P
0&!
#2360000
0!
0I
0J
#2370000
1!
1I
1J
0Q
0R
#2380000
0!
0I
0J
#2390000
1!
1I
1J
0S
1O
0T
0K
1P
#2400000
0!
0I
0J
0U
1V
1E
0%!
1/
1&!
0Y
0Z
1W
1X
#2410000
1!
1I
1J
1Q
0N
1T
1R
#2420000
0!
0I
0J
1U
#2430000
1!
1I
1J
1S
1K
#2440000
0!
0I
0J
#2450000
1!
1I
1J
1N
0O
0V
0E
1%!
0/
0P
0&!
#2460000
0!
0I
0J
#2470000
1!
1I
1J
0Q
0R
#2480000
0!
0I
0J
#2490000
1!
1I
1J
0S
1O
0T
0K
1P
#2500000
0!
0I
0J
0U
1V
1E
0%!
1/
1&!
1Y
1Z
0W
0X
1\
0]
0d
0F
01
0^
#2510000
1!
1I
1J
1Q
0N
1T
1R
#2520000
0!
0I
0J
1U
#2530000
1!
1I
1J
1S
1K
#2540000
0!
0I
0J
#2550000
1!
1I
1J
1N
0O
0V
0E
1%!
0/
0P
0&!
#2560000
0!
0I
0J
#2570000
1!
1I
1J
0Q
0R
#2580000
0!
0I
0J
#2590000
1!
1I
1J
0S
1O
0T
0K
1P
#2600000
0!
0I
0J
0U
1V
1E
0%!
1/
1&!
0Y
0Z
1W
1X
#2610000
1!
1I
1J
1Q
0N
1T
1R
#2620000
0!
0I
0J
1U
#2630000
1!
1I
1J
1S
1K
#2640000
0!
0I
0J
#2650000
1!
1I
1J
1N
0O
0V
0E
1%!
0/
0P
0&!
#2660000
0!
0I
0J
#2670000
1!
1I
1J
0Q
0R
#2680000
0!
0I
0J
#2690000
1!
1I
1J
0S
1O
0T
0K
1P
#2700000
0!
0I
0J
0U
1V
1E
0%!
1/
1&!
1Y
1Z
0W
0X
0_
0`
#2710000
1!
1I
1J
1Q
0N
1T
1R
#2720000
0!
0I
0J
1U
#2730000
1!
1I
1J
1S
1K
#2740000
0!
0I
0J
#2750000
1!
1I
1J
1N
0O
0V
0E
1%!
0/
0P
0&!
#2760000
0!
0I
0J
#2770000
1!
1I
1J
0Q
0R
#2780000
0!
0I
0J
#2790000
1!
1I
1J
0S
1O
0T
0K
1P
#2800000
0!
0I
0J
0U
1V
1E
0%!
1/
1&!
0Y
0Z
1W
1X
#2810000
1!
1I
1J
1Q
0N
1T
1R
#2820000
0!
0I
0J
1U
#2830000
1!
1I
1J
1S
1K
#2840000
0!
0I
0J
#2850000
1!
1I
1J
1N
0O
0V
0E
1%!
0/
0P
0&!
#2860000
0!
0I
0J
#2870000
1!
1I
1J
0Q
0R
#2880000
0!
0I
0J
#2890000
1!
1I
1J
0S
1O
0T
0K
1P
#2900000
0!
0I
0J
0U
1V
1E
0%!
1/
1&!
1Y
1Z
0W
0X
0a
1]
0b
0[
1^
#2910000
1!
1I
1J
1Q
0N
1T
1R
#2920000
0!
0I
0J
1U
#2930000
1!
1I
1J
1S
1K
#2940000
0!
0I
0J
#2950000
1!
1I
1J
1N
0O
0V
0E
1%!
0/
0P
0&!
#2960000
0!
0I
0J
#2970000
1!
1I
1J
0Q
0R
#2980000
0!
0I
0J
#2990000
1!
1I
1J
0S
1O
0T
0K
1P
#3000000
0!
0I
0J
0U
1V
1E
0%!
1/
1&!
0Y
0Z
1W
1X
0c
1d
1F
11
1g
1h
0e
0f
1o
1i
#3010000
1!
1I
1J
1Q
0N
1T
1R
#3020000
0!
0I
0J
1U
#3030000
1!
1I
1J
1S
1K
#3040000
0!
0I
0J
#3050000
1!
1I
1J
1N
0O
0V
0E
1%!
0/
0P
0&!
#3060000
0!
0I
0J
#3070000
1!
1I
1J
0Q
0R
#3080000
0!
0I
0J
#3090000
1!
1I
1J
0S
1O
0T
0K
1P
#3100000
0!
0I
0J
0U
1V
1E
0%!
1/
1&!
1Y
1Z
0W
0X
1_
0\
1b
1`
#3110000
1!
1I
1J
1Q
0N
1T
1R
#3120000
0!
0I
0J
1U
#3130000
1!
1I
1J
1S
1K
#3140000
0!
0I
0J
#3150000
1!
1I
1J
1N
0O
0V
0E
1%!
0/
0P
0&!
#3160000
0!
0I
0J
#3170000
1!
1I
1J
0Q
0R
#3180000
0!
0I
0J
#3190000
1!
1I
1J
0S
1O
0T
0K
1P
#3200000
0!
0I
0J
0U
1V
1E
0%!
1/
1&!
0Y
0Z
1W
1X
1c
#3210000
1!
1I
1J
1Q
0N
1T
1R
#3220000
0!
0I
0J
1U
#3230000
1!
1I
1J
1S
1K
#3240000
0!
0I
0J
#3250000
1!
1I
1J
1N
0O
0V
0E
1%!
0/
0P
0&!
#3260000
0!
0I
0J
#3270000
1!
1I
1J
0Q
0R
#3280000
0!
0I
0J
#3290000
1!
1I
1J
0S
1O
0T
0K
1P
#3300000
0!
0I
0J
0U
1V
1E
0%!
1/
1&!
1Y
1Z
0W
0X
1a
1[
#3310000
1!
1I
1J
1Q
0N
1T
1R
#3320000
0!
0I
0J
1U
#3330000
1!
1I
1J
1S
1K
#3340000
0!
0I
0J
#3350000
1!
1I
1J
1N
0O
0V
0E
1%!
0/
0P
0&!
#3360000
0!
0I
0J
#3370000
1!
1I
1J
0Q
0R
#3380000
0!
0I
0J
#3390000
1!
1I
1J
0S
1O
0T
0K
1P
#3400000
0!
0I
0J
0U
1V
1E
0%!
1/
1&!
0Y
0Z
1W
1X
#3410000
1!
1I
1J
1Q
0N
1T
1R
#3420000
0!
0I
0J
1U
#3430000
1!
1I
1J
1S
1K
#3440000
0!
0I
0J
#3450000
1!
1I
1J
1N
0O
0V
0E
1%!
0/
0P
0&!
#3460000
0!
0I
0J
#3470000
1!
1I
1J
0Q
0R
#3480000
0!
0I
0J
#3490000
1!
1I
1J
0S
1O
0T
0K
1P
#3500000
0!
0I
0J
0U
1V
1E
0%!
1/
1&!
1Y
1Z
0W
0X
1\
0]
0d
0F
01
0^
#3510000
1!
1I
1J
1Q
0N
1T
1R
#3520000
0!
0I
0J
1U
#3530000
1!
1I
1J
1S
1K
#3540000
0!
0I
0J
#3550000
1!
1I
1J
1N
0O
0V
0E
1%!
0/
0P
0&!
#3560000
0!
0I
0J
#3570000
1!
1I
1J
0Q
0R
#3580000
0!
0I
0J
#3590000
1!
1I
1J
0S
1O
0T
0K
1P
#3600000
0!
0I
0J
0U
1V
1E
0%!
1/
1&!
0Y
0Z
1W
1X
#3610000
1!
1I
1J
1Q
0N
1T
1R
#3620000
0!
0I
0J
1U
#3630000
1!
1I
1J
1S
1K
#3640000
0!
0I
0J
#3650000
1!
1I
1J
1N
0O
0V
0E
1%!
0/
0P
0&!
#3660000
0!
0I
0J
#3670000
1!
1I
1J
0Q
0R
#3680000
0!
0I
0J
#3690000
1!
1I
1J
0S
1O
0T
0K
1P
#3700000
0!
0I
0J
0U
1V
1E
0%!
1/
1&!
1Y
1Z
0W
0X
0_
0`
#3710000
1!
1I
1J
1Q
0N
1T
1R
#3720000
0!
0I
0J
1U
#3730000
1!
1I
1J
1S
1K
#3740000
0!
0I
0J
#3750000
1!
1I
1J
1N
0O
0V
0E
1%!
0/
0P
0&!
#3760000
0!
0I
0J
#3770000
1!
1I
1J
0Q
0R
#3780000
0!
0I
0J
#3790000
1!
1I
1J
0S
1O
0T
0K
1P
#3800000
0!
0I
0J
0U
1V
1E
0%!
1/
1&!
0Y
0Z
1W
1X
#3810000
1!
1I
1J
1Q
0N
1T
1R
#3820000
0!
0I
0J
1U
#3830000
1!
1I
1J
1S
1K
#3840000
0!
0I
0J
#3850000
1!
1I
1J
1N
0O
0V
0E
1%!
0/
0P
0&!
#3860000
0!
0I
0J
#3870000
1!
1I
1J
0Q
0R
#3880000
0!
0I
0J
#3890000
1!
1I
1J
0S
1O
0T
0K
1P
#3900000
0!
0I
0J
0U
1V
1E
0%!
1/
1&!
1Y
1Z
0W
0X
0a
1]
0b
0[
1^
#3910000
1!
1I
1J
1Q
0N
1T
1R
#3920000
0!
0I
0J
1U
#3930000
1!
1I
1J
1S
1K
#3940000
0!
0I
0J
#3950000
1!
1I
1J
1N
0O
0V
0E
1%!
0/
0P
0&!
#3960000
0!
0I
0J
#3970000
1!
1I
1J
0Q
0R
#3980000
0!
0I
0J
#3990000
1!
1I
1J
0S
1O
0T
0K
1P
#4000000
0!
0I
0J
0U
1V
1E
0%!
1/
1&!
0Y
0Z
1W
1X
0c
1d
1F
11
0g
0h
1e
1f
#4010000
1!
1I
1J
1Q
0N
1T
1R
#4020000
0!
0I
0J
1U
#4030000
1!
1I
1J
1S
1K
#4040000
0!
0I
0J
#4050000
1!
1I
1J
1N
0O
0V
0E
1%!
0/
0P
0&!
#4060000
0!
0I
0J
#4070000
1!
1I
1J
0Q
0R
#4080000
0!
0I
0J
#4090000
1!
1I
1J
0S
1O
0T
0K
1P
#4100000
0!
0I
0J
0U
1V
1E
0%!
1/
1&!
1Y
1Z
0W
0X
1_
0\
1b
1`
#4110000
1!
1I
1J
1Q
0N
1T
1R
#4120000
0!
0I
0J
1U
#4130000
1!
1I
1J
1S
1K
#4140000
0!
0I
0J
#4150000
1!
1I
1J
1N
0O
0V
0E
1%!
0/
0P
0&!
#4160000
0!
0I
0J
#4170000
1!
1I
1J
0Q
0R
#4180000
0!
0I
0J
#4190000
1!
1I
1J
0S
1O
0T
0K
1P
#4200000
0!
0I
0J
0U
1V
1E
0%!
1/
1&!
0Y
0Z
1W
1X
1c
#4210000
1!
1I
1J
1Q
0N
1T
1R
#4220000
0!
0I
0J
1U
#4230000
1!
1I
1J
1S
1K
#4240000
0!
0I
0J
#4250000
1!
1I
1J
1N
0O
0V
0E
1%!
0/
0P
0&!
#4260000
0!
0I
0J
#4270000
1!
1I
1J
0Q
0R
#4280000
0!
0I
0J
#4290000
1!
1I
1J
0S
1O
0T
0K
1P
#4300000
0!
0I
0J
0U
1V
1E
0%!
1/
1&!
1Y
1Z
0W
0X
1a
1[
#4310000
1!
1I
1J
1Q
0N
1T
1R
#4320000
0!
0I
0J
1U
#4330000
1!
1I
1J
1S
1K
#4340000
0!
0I
0J
#4350000
1!
1I
1J
1N
0O
0V
0E
1%!
0/
0P
0&!
#4360000
0!
0I
0J
#4370000
1!
1I
1J
0Q
0R
#4380000
0!
0I
0J
#4390000
1!
1I
1J
0S
1O
0T
0K
1P
#4400000
0!
0I
0J
0U
1V
1E
0%!
1/
1&!
0Y
0Z
1W
1X
#4410000
1!
1I
1J
1Q
0N
1T
1R
#4420000
0!
0I
0J
1U
#4430000
1!
1I
1J
1S
1K
#4440000
0!
0I
0J
#4450000
1!
1I
1J
1N
0O
0V
0E
1%!
0/
0P
0&!
#4460000
0!
0I
0J
#4470000
1!
1I
1J
0Q
0R
#4480000
0!
0I
0J
#4490000
1!
1I
1J
0S
1O
0T
0K
1P
#4500000
0!
0I
0J
0U
1V
1E
0%!
1/
1&!
1Y
1Z
0W
0X
1\
0]
0d
0F
01
0^
#4510000
1!
1I
1J
1Q
0N
1T
1R
#4520000
0!
0I
0J
1U
#4530000
1!
1I
1J
1S
1K
#4540000
0!
0I
0J
#4550000
1!
1I
1J
1N
0O
0V
0E
1%!
0/
0P
0&!
#4560000
0!
0I
0J
#4570000
1!
1I
1J
0Q
0R
#4580000
0!
0I
0J
#4590000
1!
1I
1J
0S
1O
0T
0K
1P
