Uni/grad/MAM/fpga/fpga2/project/simulation/qsim/hw02_simakma5.msim.vcd
$comment
	File created using the following command:
		vcd file hw02_simakma5.msim.vcd -direction
$end
$date
	Wed Dec 07 19:19:53 2022
$end
$version
	ModelSim Version 10.5b
$end
$timescale
	1ps
$end

$scope module hw02_simakma5_vhd_vec_tst $end
$var wire 1 ! A $end
$var wire 1 " B $end
$var wire 1 # C $end
$var wire 1 $ CLK_IN $end
$var wire 1 % CLK_OUT $end
$var wire 1 & D $end
$var wire 1 ' D0 $end
$var wire 1 ( D1 $end
$var wire 1 ) D2 $end
$var wire 1 * D3 $end
$var wire 1 + Data $end
$var wire 1 , h $end
$var wire 1 - KEY0 $end
$var wire 1 . KEY1 $end
$var wire 1 / LATCH $end
$var wire 1 0 STROBE $end
$var wire 1 1 SW0 $end
$var wire 1 2 SW1 $end
$var wire 1 3 test_bcd_CLK $end
$var wire 1 4 test_CLK $end
$var wire 1 5 test_Sync $end

$scope module i1 $end
$var wire 1 6 gnd $end
$var wire 1 7 vcc $end
$var wire 1 8 unknown $end
$var wire 1 9 devoe $end
$var wire 1 : devclrn $end
$var wire 1 ; devpor $end
$var wire 1 < ww_devoe $end
$var wire 1 = ww_devclrn $end
$var wire 1 > ww_devpor $end
$var wire 1 ? ww_STROBE $end
$var wire 1 @ ww_test_CLK $end
$var wire 1 A ww_test_Sync $end
$var wire 1 B ww_SW1 $end
$var wire 1 C ww_SW0 $end
$var wire 1 D ww_Data $end
$var wire 1 E ww_D0 $end
$var wire 1 F ww_D1 $end
$var wire 1 G ww_D2 $end
$var wire 1 H ww_D3 $end
$var wire 1 I ww_test_bcd_CLK $end
$var wire 1 J ww_KEY1 $end
$var wire 1 K ww_CLK_OUT $end
$var wire 1 L ww_LATCH $end
$var wire 1 M ww_A $end
$var wire 1 N ww_B $end
$var wire 1 O ww_C $end
$var wire 1 P ww_D $end
$var wire 1 Q ww_h $end
$var wire 1 R ww_CLK_IN $end
$var wire 1 S ww_KEY0 $end
$var wire 1 T \~QUARTUS_CREATED_ADC1~_CHSEL_bus\ [4] $end
$var wire 1 U \~QUARTUS_CREATED_ADC1~_CHSEL_bus\ [3] $end
$var wire 1 V \~QUARTUS_CREATED_ADC1~_CHSEL_bus\ [2] $end
$var wire 1 W \~QUARTUS_CREATED_ADC1~_CHSEL_bus\ [1] $end
$var wire 1 X \~QUARTUS_CREATED_ADC1~_CHSEL_bus\ [0] $end
$var wire 1 Y \~QUARTUS_CREATED_ADC2~_CHSEL_bus\ [4] $end
$var wire 1 Z \~QUARTUS_CREATED_ADC2~_CHSEL_bus\ [3] $end
$var wire 1 [ \~QUARTUS_CREATED_ADC2~_CHSEL_bus\ [2] $end
$var wire 1 \ \~QUARTUS_CREATED_ADC2~_CHSEL_bus\ [1] $end
$var wire 1 ] \~QUARTUS_CREATED_ADC2~_CHSEL_bus\ [0] $end
$var wire 1 ^ \inst5|inst5|7~clkctrl_INCLK_bus\ [3] $end
$var wire 1 _ \inst5|inst5|7~clkctrl_INCLK_bus\ [2] $end
$var wire 1 ` \inst5|inst5|7~clkctrl_INCLK_bus\ [1] $end
$var wire 1 a \inst5|inst5|7~clkctrl_INCLK_bus\ [0] $end
$var wire 1 b \inst5|inst3|7~clkctrl_INCLK_bus\ [3] $end
$var wire 1 c \inst5|inst3|7~clkctrl_INCLK_bus\ [2] $end
$var wire 1 d \inst5|inst3|7~clkctrl_INCLK_bus\ [1] $end
$var wire 1 e \inst5|inst3|7~clkctrl_INCLK_bus\ [0] $end
$var wire 1 f \inst8|inst~clkctrl_INCLK_bus\ [3] $end
$var wire 1 g \inst8|inst~clkctrl_INCLK_bus\ [2] $end
$var wire 1 h \inst8|inst~clkctrl_INCLK_bus\ [1] $end
$var wire 1 i \inst8|inst~clkctrl_INCLK_bus\ [0] $end
$var wire 1 j \inst8|inst1|Mux1~clkctrl_INCLK_bus\ [3] $end
$var wire 1 k \inst8|inst1|Mux1~clkctrl_INCLK_bus\ [2] $end
$var wire 1 l \inst8|inst1|Mux1~clkctrl_INCLK_bus\ [1] $end
$var wire 1 m \inst8|inst1|Mux1~clkctrl_INCLK_bus\ [0] $end
$var wire 1 n \inst5|inst4|7~clkctrl_INCLK_bus\ [3] $end
$var wire 1 o \inst5|inst4|7~clkctrl_INCLK_bus\ [2] $end
$var wire 1 p \inst5|inst4|7~clkctrl_INCLK_bus\ [1] $end
$var wire 1 q \inst5|inst4|7~clkctrl_INCLK_bus\ [0] $end
$var wire 1 r \test_Sync~inputclkctrl_INCLK_bus\ [3] $end
$var wire 1 s \test_Sync~inputclkctrl_INCLK_bus\ [2] $end
$var wire 1 t \test_Sync~inputclkctrl_INCLK_bus\ [1] $end
$var wire 1 u \test_Sync~inputclkctrl_INCLK_bus\ [0] $end
$var wire 1 v \inst5|inst6|7~clkctrl_INCLK_bus\ [3] $end
$var wire 1 w \inst5|inst6|7~clkctrl_INCLK_bus\ [2] $end
$var wire 1 x \inst5|inst6|7~clkctrl_INCLK_bus\ [1] $end
$var wire 1 y \inst5|inst6|7~clkctrl_INCLK_bus\ [0] $end
$var wire 1 z \KEY1~input_o\ $end
$var wire 1 { \CLK_IN~input_o\ $end
$var wire 1 | \KEY0~input_o\ $end
$var wire 1 } \~QUARTUS_CREATED_GND~I_combout\ $end
$var wire 1 ~ \~QUARTUS_CREATED_UNVM~~busy\ $end
$var wire 1 !! \~QUARTUS_CREATED_ADC1~~eoc\ $end
$var wire 1 "! \~QUARTUS_CREATED_ADC2~~eoc\ $end
$var wire 1 #! \STROBE~output_o\ $end
$var wire 1 $! \Data~output_o\ $end
$var wire 1 %! \D0~output_o\ $end
$var wire 1 &! \D1~output_o\ $end
$var wire 1 '! \D2~output_o\ $end
$var wire 1 (! \D3~output_o\ $end
$var wire 1 )! \CLK_OUT~output_o\ $end
$var wire 1 *! \LATCH~output_o\ $end
$var wire 1 +! \A~output_o\ $end
$var wire 1 ,! \B~output_o\ $end
$var wire 1 -! \C~output_o\ $end
$var wire 1 .! \D~output_o\ $end
$var wire 1 /! \h~output_o\ $end
$var wire 1 0! \test_CLK~input_o\ $end
$var wire 1 1! \inst8|inst2|inst~0_combout\ $end
$var wire 1 2! \test_Sync~input_o\ $end
$var wire 1 3! \test_Sync~inputclkctrl_outclk\ $end
$var wire 1 4! \inst8|inst2|inst~q\ $end
$var wire 1 5! \inst8|inst2|inst1~0_combout\ $end
$var wire 1 6! \inst8|inst2|inst1~feeder_combout\ $end
$var wire 1 7! \inst8|inst2|inst1~q\ $end
$var wire 1 8! \inst8|inst2|inst2~0_combout\ $end
$var wire 1 9! \inst8|inst2|inst2~feeder_combout\ $end
$var wire 1 :! \inst8|inst2|inst2~q\ $end
$var wire 1 ;! \inst8|inst2|inst9~combout\ $end
$var wire 1 <! \inst8|inst2|inst4~0_combout\ $end
$var wire 1 =! \inst8|inst2|inst4~feeder_combout\ $end
$var wire 1 >! \inst8|inst2|inst4~q\ $end
$var wire 1 ?! \inst8|inst2|inst5~0_combout\ $end
$var wire 1 @! \inst8|inst2|inst5~q\ $end
$var wire 1 A! \inst8|inst~combout\ $end
$var wire 1 B! \inst8|inst~clkctrl_outclk\ $end
$var wire 1 C! \inst8|inst2|inst3~0_combout\ $end
$var wire 1 D! \inst8|inst2|inst3~feeder_combout\ $end
$var wire 1 E! \inst8|inst2|inst3~q\ $end
$var wire 1 F! \inst8|inst1|Mux0~0_combout\ $end
$var wire 1 G! \inst8|inst1|Mux0~1_combout\ $end
$var wire 1 H! \inst8|inst1|Mux0~2_combout\ $end
$var wire 1 I! \inst8|inst1|Mux0~3_combout\ $end
$var wire 1 J! \inst8|inst1|Mux1~0_combout\ $end
$var wire 1 K! \inst8|inst1|Mux0~4_combout\ $end
$var wire 1 L! \inst8|inst1|Mux1~1_combout\ $end
$var wire 1 M! \inst8|inst1|Mux1~2_combout\ $end
$var wire 1 N! \inst8|inst1|Mux1~3_combout\ $end
$var wire 1 O! \inst8|inst1|Mux1~4_combout\ $end
$var wire 1 P! \inst8|inst1|Mux1~5_combout\ $end
$var wire 1 Q! \inst8|inst1|Mux1~6_combout\ $end
$var wire 1 R! \inst8|inst1|Mux1~combout\ $end
$var wire 1 S! \inst8|inst1|Mux1~clkctrl_outclk\ $end
$var wire 1 T! \SW1~input_o\ $end
$var wire 1 U! \inst8|inst4|state.digit3~q\ $end
$var wire 1 V! \inst8|inst4|state.digit0~0_combout\ $end
$var wire 1 W! \inst8|inst4|state.digit0~q\ $end
$var wire 1 X! \inst8|inst4|state.digit1~0_combout\ $end
$var wire 1 Y! \inst8|inst4|state.digit1~q\ $end
$var wire 1 Z! \inst8|inst4|state.digit2~q\ $end
$var wire 1 [! \SW0~input_o\ $end
$var wire 1 \! \inst8|inst4|h~0_combout\ $end
$var wire 1 ]! \inst8|inst1|Mux2~0_combout\ $end
$var wire 1 ^! \inst8|inst1|Mux2~1_combout\ $end
$var wire 1 _! \test_bcd_CLK~input_o\ $end
$var wire 1 `! \inst5|inst3|7~0_combout\ $end
$var wire 1 a! \inst5|inst3|7~feeder_combout\ $end
$var wire 1 b! \inst5|inst3|7~q\ $end
$var wire 1 c! \inst5|inst3|7~clkctrl_outclk\ $end
$var wire 1 d! \inst5|inst3|31~combout\ $end
$var wire 1 e! \inst5|inst3|11~q\ $end
$var wire 1 f! \inst5|inst3|14~0_combout\ $end
$var wire 1 g! \inst5|inst3|14~q\ $end
$var wire 1 h! \inst5|inst3|30~combout\ $end
$var wire 1 i! \inst5|inst3|19~q\ $end
$var wire 1 j! \inst5|inst4|7~0_combout\ $end
$var wire 1 k! \inst5|inst4|7~feeder_combout\ $end
$var wire 1 l! \inst5|inst4|7~q\ $end
$var wire 1 m! \inst5|inst4|7~clkctrl_outclk\ $end
$var wire 1 n! \inst5|inst4|31~combout\ $end
$var wire 1 o! \inst5|inst4|11~feeder_combout\ $end
$var wire 1 p! \inst5|inst4|11~q\ $end
$var wire 1 q! \inst5|inst4|14~0_combout\ $end
$var wire 1 r! \inst5|inst4|14~q\ $end
$var wire 1 s! \inst5|inst4|30~combout\ $end
$var wire 1 t! \inst5|inst4|19~q\ $end
$var wire 1 u! \inst5|inst5|7~0_combout\ $end
$var wire 1 v! \inst5|inst5|7~feeder_combout\ $end
$var wire 1 w! \inst5|inst5|7~q\ $end
$var wire 1 x! \inst5|inst5|7~clkctrl_outclk\ $end
$var wire 1 y! \inst5|inst5|31~combout\ $end
$var wire 1 z! \inst5|inst5|11~feeder_combout\ $end
$var wire 1 {! \inst5|inst5|11~q\ $end
$var wire 1 |! \inst5|inst5|14~0_combout\ $end
$var wire 1 }! \inst5|inst5|14~q\ $end
$var wire 1 ~! \inst5|inst5|30~combout\ $end
$var wire 1 !" \inst5|inst5|19~q\ $end
$var wire 1 "" \inst5|inst6|7~0_combout\ $end
$var wire 1 #" \inst5|inst6|7~feeder_combout\ $end
$var wire 1 $" \inst5|inst6|7~q\ $end
$var wire 1 %" \inst5|inst6|7~clkctrl_outclk\ $end
$var wire 1 &" \inst5|inst6|31~combout\ $end
$var wire 1 '" \inst5|inst6|11~q\ $end
$var wire 1 (" \inst5|inst6|14~0_combout\ $end
$var wire 1 )" \inst5|inst6|14~q\ $end
$var wire 1 *" \inst5|inst6|30~combout\ $end
$var wire 1 +" \inst5|inst6|19~q\ $end
$var wire 1 ," \inst5|inst13~1_combout\ $end
$var wire 1 -" \inst5|inst13~0_combout\ $end
$var wire 1 ." \inst5|inst13~combout\ $end
$var wire 1 /" \inst5|inst1~0_combout\ $end
$var wire 1 0" \inst5|inst1~1_combout\ $end
$var wire 1 1" \inst5|inst1~combout\ $end
$var wire 1 2" \inst5|inst~0_combout\ $end
$var wire 1 3" \inst5|inst~1_combout\ $end
$var wire 1 4" \inst5|inst~combout\ $end
$var wire 1 5" \inst5|inst12~0_combout\ $end
$var wire 1 6" \inst5|inst12~1_combout\ $end
$var wire 1 7" \inst5|inst12~combout\ $end
$var wire 1 8" \inst7|106~0_combout\ $end
$var wire 1 9" \inst6|84~0_combout\ $end
$var wire 1 :" \inst6|84~1_combout\ $end
$var wire 1 ;" \inst7|103~0_combout\ $end
$var wire 1 <" \inst7|79~0_combout\ $end
$var wire 1 =" \inst7|78~0_combout\ $end
$var wire 1 >" \inst7|17~combout\ $end
$var wire 1 ?" \inst7|10~q\ $end
$var wire 1 @" \inst7|22~0_combout\ $end
$var wire 1 A" \inst7|23~q\ $end
$var wire 1 B" \inst7|25~0_combout\ $end
$var wire 1 C" \inst7|24~q\ $end
$var wire 1 D" \inst7|45~0_combout\ $end
$var wire 1 E" \inst7|47~q\ $end
$var wire 1 F" \inst7|44~0_combout\ $end
$var wire 1 G" \inst7|46~q\ $end
$var wire 1 H" \inst7|50~0_combout\ $end
$var wire 1 I" \inst7|48~q\ $end
$var wire 1 J" \inst7|51~0_combout\ $end
$var wire 1 K" \inst7|49~q\ $end
$var wire 1 L" \inst7|73~0_combout\ $end
$var wire 1 M" \inst7|75~q\ $end
$var wire 1 N" \inst7|72~0_combout\ $end
$var wire 1 O" \inst7|72~1_combout\ $end
$var wire 1 P" \inst7|74~q\ $end
$var wire 1 Q" \inst7|78~1_combout\ $end
$var wire 1 R" \inst7|76~q\ $end
$var wire 1 S" \inst7|79~1_combout\ $end
$var wire 1 T" \inst7|77~q\ $end
$var wire 1 U" \inst7|103~q\ $end
$var wire 1 V" \inst7|100~0_combout\ $end
$var wire 1 W" \inst7|100~1_combout\ $end
$var wire 1 X" \inst7|102~q\ $end
$var wire 1 Y" \inst7|106~1_combout\ $end
$var wire 1 Z" \inst7|104~q\ $end
$var wire 1 [" \inst7|107~0_combout\ $end
$var wire 1 \" \inst7|107~1_combout\ $end
$var wire 1 ]" \inst7|105~q\ $end
$var wire 1 ^" \inst7|123~0_combout\ $end
$var wire 1 _" \inst7|124~q\ $end
$var wire 1 `" \inst101~combout\ $end
$var wire 1 a" \inst5|inst6|ALT_INV_7~clkctrl_outclk\ $end
$var wire 1 b" \inst5|inst4|ALT_INV_7~clkctrl_outclk\ $end
$var wire 1 c" \inst8|inst1|ALT_INV_Mux1~clkctrl_outclk\ $end
$var wire 1 d" \inst5|inst3|ALT_INV_7~clkctrl_outclk\ $end
$var wire 1 e" \inst5|inst5|ALT_INV_7~clkctrl_outclk\ $end
$var wire 1 f" \ALT_INV_test_bcd_CLK~input_o\ $end
$var wire 1 g" \inst5|inst4|ALT_INV_19~q\ $end
$var wire 1 h" \inst5|inst3|ALT_INV_19~q\ $end
$var wire 1 i" \inst5|inst5|ALT_INV_19~q\ $end
$var wire 1 j" \inst8|inst1|ALT_INV_Mux2~1_combout\ $end
$var wire 1 k" \inst8|inst4|ALT_INV_state.digit0~q\ $end
$upscope $end
$upscope $end
$enddefinitions $end
#0
$dumpvars
0!
0"
0#
x$
0%
0&
1'
0(
0)
0*
0+
1,
x-
1.
0/
00
01
02
03
04
05
06
17
x8
19
1:
1;
1<
1=
1>
0?
0@
0A
0B
0C
0D
1E
0F
0G
0H
0I
1J
0K
0L
0M
0N
0O
0P
1Q
xR
xS
1z
x{
x|
0}
z~
z!!
z"!
0#!
0$!
1%!
0&!
0'!
0(!
0)!
0*!
0+!
0,!
0-!
0.!
1/!
00!
11!
02!
03!
04!
05!
06!
07!
08!
09!
0:!
0;!
0<!
0=!
0>!
0?!
0@!
0A!
0B!
0C!
0D!
0E!
0F!
1G!
0H!
0I!
1J!
1K!
0L!
1M!
1N!
0O!
1P!
1Q!
0R!
0S!
0T!
0U!
1V!
0W!
1X!
0Y!
0Z!
0[!
1\!
0]!
0^!
0_!
1`!
1a!
0b!
0c!
1d!
0e!
0f!
0g!
0h!
0i!
1j!
1k!
0l!
0m!
1n!
1o!
0p!
0q!
0r!
0s!
0t!
1u!
1v!
0w!
0x!
1y!
1z!
0{!
0|!
0}!
0~!
0!"
1""
1#"
0$"
0%"
1&"
0'"
0("
0)"
0*"
0+"
0,"
0-"
0."
0/"
00"
01"
02"
03"
04"
05"
06"
07"
08"
09"
0:"
0;"
0<"
0="
1>"
0?"
0@"
0A"
0B"
0C"
0D"
0E"
0F"
0G"
0H"
0I"
0J"
0K"
0L"
0M"
0N"
0O"
0P"
0Q"
0R"
0S"
0T"
0U"
0V"
0W"
0X"
0Y"
0Z"
1["
0\"
0]"
0^"
0_"
0`"
1a"
1b"
1c"
1d"
1e"
1f"
1g"
1h"
1i"
1j"
1k"
1r
1s
1t
0u
1f
1g
1h
0i
1j
1k
1l
0m
1b
1c
1d
0e
1n
1o
1p
0q
1^
1_
1`
0a
1v
1w
1x
0y
0T
0U
0V
0W
0X
0Y
0Z
0[
0\
0]
$end
#10000
14
1@
10!
1A!
1i
1B!
#20000
04
0@
00!
0A!
0i
0B!
#30000
14
1@
10!
1A!
1i
1B!
#40000
04
0@
00!
0A!
0i
0B!
#50000
14
1@
10!
1A!
1i
1B!
#60000
04
0@
00!
0A!
0i
0B!
#70000
14
1@
10!
1A!
1i
1B!
#80000
04
0@
00!
0A!
0i
0B!
#90000
14
1@
10!
1A!
1i
1B!
#100000
04
0@
00!
0A!
0i
0B!
#110000
14
1@
10!
1A!
1i
1B!
#120000
04
0@
00!
0A!
0i
0B!
#130000
14
1@
10!
1A!
1i
1B!
#140000
04
0@
00!
0A!
0i
0B!
#150000
14
1@
10!
1A!
1i
1B!
#160000
04
0@
00!
0A!
0i
0B!
#170000
14
1@
10!
1A!
1i
1B!
#180000
04
0@
00!
0A!
0i
0B!
#190000
14
1@
10!
1A!
1i
1B!
#200000
04
0@
00!
0A!
0i
0B!
#210000
14
1@
10!
1A!
1i
1B!
#220000
04
0@
00!
0A!
0i
0B!
#230000
14
1@
10!
1A!
1i
1B!
#240000
04
0@
00!
0A!
0i
0B!
#250000
14
1@
10!
1A!
1i
1B!
#260000
04
0@
00!
0A!
0i
0B!
#270000
14
1@
10!
1A!
1i
1B!
#280000
04
0@
00!
0A!
0i
0B!
#290000
14
1@
10!
1A!
1i
1B!
#300000
04
0@
00!
0A!
0i
0B!
#310000
14
1@
10!
1A!
1i
1B!
#320000
04
0@
00!
0A!
0i
0B!
#330000
14
1@
10!
1A!
1i
1B!
#340000
04
0@
00!
0A!
0i
0B!
#350000
14
1@
10!
1A!
1i
1B!
#360000
04
0@
00!
0A!
0i
0B!
#370000
14
1@
10!
1A!
1i
1B!
#380000
04
0@
00!
0A!
0i
0B!
#390000
14
1@
10!
1A!
1i
1B!
#400000
04
0@
00!
0A!
0i
0B!
#410000
14
1@
10!
1A!
1i
1B!
#420000
04
0@
00!
0A!
0i
0B!
#430000
14
1@
10!
1A!
1i
1B!
#440000
04
0@
00!
0A!
0i
0B!
#450000
14
1@
10!
1A!
1i
1B!
#460000
04
0@
00!
0A!
0i
0B!
#470000
14
1@
10!
1A!
1i
1B!
#480000
04
0@
00!
0A!
0i
0B!
#490000
14
1@
10!
1A!
1i
1B!
#500000
04
15
0@
1A
12!
00!
1u
0A!
0i
13!
0B!
1W!
1Y!
0k"
1&!
0\!
0X!
0%!
1F
0/!
0E
1(
0Q
0'
0,
#510000
14
1@
10!
1A!
1i
1B!
14!
01!
15!
1O!
0P!
0Q!
16!
#520000
04
0@
00!
0A!
0i
0B!
#530000
14
1@
10!
1A!
1i
1B!
04!
17!
11!
0J!
1P!
1]!
1^!
0>"
1Q!
0j"
1*!
1@"
1\"
1L
1/
#540000
04
0@
00!
0A!
0i
0B!
#550000
14
1@
10!
1A!
1i
1B!
14!
01!
05!
18!
0G!
1J!
0K!
0P!
0Q!
1L!
19!
06!
0M!
0N!
1R!
1m
1S!
0c"
#560000
04
0@
00!
0A!
0i
0B!
#570000
14
1@
10!
1A!
1i
1B!
04!
07!
1:!
0L!
11!
1K!
0O!
1P!
1M!
1N!
1Q!
0R!
0m
0S!
1c"
1A"
1]"
#580000
04
0@
00!
0A!
0i
0B!
#590000
14
1@
10!
1A!
1i
1B!
14!
01!
15!
1O!
0]!
0^!
1>"
0P!
16!
1j"
0*!
0Q!
0@"
1B"
0\"
1^"
0L
0/
#600000
04
0@
00!
0A!
0i
0B!
#610000
14
1@
10!
1A!
1i
1B!
04!
17!
1F!
11!
0J!
1L!
1H!
0M!
0N!
1R!
1m
1`"
1)!
1S!
1K
0c"
1%
#620000
04
0@
00!
0A!
0i
0B!
#630000
14
1@
10!
1A!
1i
1B!
14!
01!
05!
08!
1C!
1J!
0K!
0L!
1D!
09!
06!
1M!
1N!
0R!
0m
0`"
0)!
0S!
0K
1c"
0%
1?"
0A"
1C"
0]"
1_"
1$!
0^"
1D"
0B"
1@"
1D
1+
#640000
04
0@
00!
0A!
0i
0B!
#650000
14
1@
10!
1A!
1i
1B!
04!
07!
0:!
1E!
0H!
1L!
0F!
11!
1G!
1K!
0M!
0O!
1P!
0N!
0L!
1H!
1R!
1m
1`"
1)!
1S!
1K
0c"
1%
#660000
04
0@
00!
0A!
0i
0B!
#670000
14
1@
10!
1A!
1i
1B!
14!
01!
15!
1M!
1O!
0P!
1N!
16!
0R!
0m
0`"
0)!
0S!
0K
1c"
0%
1A"
0C"
1E"
0_"
0$!
1F"
0D"
1B"
0D
0+
#680000
04
0@
00!
0A!
0i
0B!
#690000
14
1@
10!
1A!
1i
1B!
04!
17!
11!
0J!
0M!
1P!
0N!
1R!
1m
1`"
1)!
1S!
1K
0c"
1%
#700000
04
0@
00!
0A!
0i
0B!
#710000
14
1@
10!
1A!
1i
1B!
14!
01!
05!
18!
0G!
1J!
0K!
1M!
0P!
1N!
1L!
0H!
19!
06!
0R!
0m
0`"
0)!
0S!
0K
1c"
0%
1C"
0E"
1G"
1H"
0F"
1D"
#720000
04
0@
00!
0A!
0i
0B!
#730000
14
1@
10!
1A!
1i
1B!
04!
07!
1:!
0L!
11!
1K!
0M!
0O!
1P!
0N!
1R!
1m
1`"
1)!
1S!
1K
0c"
1%
#740000
04
0@
00!
0A!
0i
0B!
#750000
14
1@
10!
1A!
1i
1B!
14!
01!
15!
1M!
1O!
0P!
1N!
16!
0R!
0m
0`"
0)!
0S!
0K
1c"
0%
1E"
0G"
1I"
1J"
0H"
1F"
#760000
04
0@
00!
0A!
0i
0B!
#770000
14
1@
10!
1A!
1i
1B!
04!
17!
1F!
11!
0J!
0M!
0N!
1L!
1R!
1m
1`"
1)!
1S!
1K
0c"
1%
#780000
04
0@
00!
0A!
0i
0B!
#790000
14
1@
10!
1A!
1i
1B!
14!
01!
05!
08!
1;!
0C!
1J!
0K!
1M!
1N!
0L!
0D!
1<!
09!
06!
1=!
0R!
0m
0`"
0)!
0S!
0K
1c"
0%
1G"
0I"
1K"
1L"
0J"
1H"
#800000
04
0@
00!
0A!
0i
0B!
#810000
14
1@
10!
1A!
1i
1B!
04!
07!
0:!
1>!
0E!
1H!
0<!
1?!
1L!
0F!
11!
0;!
1G!
1K!
0N!
0O!
1P!
1R!
0L!
1<!
0?!
0H!
0M!
0=!
1m
1=!
1M!
1`"
1)!
1S!
1K
0c"
1%
#820000
04
0@
00!
0A!
0i
0B!
#830000
14
1@
10!
1A!
1i
1B!
14!
01!
15!
1N!
1O!
0P!
0R!
16!
0m
0`"
0)!
0S!
0K
1c"
0%
1I"
0K"
1M"
1O"
0L"
1J"
#840000
04
0@
00!
0A!
0i
0B!
#850000
14
1@
10!
1A!
1i
1B!
04!
17!
11!
0J!
0N!
1P!
1]!
1R!
1m
1`"
1)!
1S!
1K
0c"
1%
#860000
04
0@
00!
0A!
0i
0B!
#870000
14
1@
10!
1A!
1i
1B!
14!
01!
05!
18!
0G!
1J!
0K!
1N!
0P!
0R!
1L!
19!
06!
0m
0M!
0`"
0)!
0S!
0K
1c"
0%
1K"
0M"
1P"
1Q"
0O"
1L"
#880000
04
0@
00!
0A!
0i
0B!
#890000
14
1@
10!
1A!
1i
1B!
04!
07!
1:!
0L!
11!
1K!
0N!
0O!
1P!
1R!
1M!
1m
1`"
1)!
1S!
1K
0c"
1%
#900000
04
0@
00!
0A!
0i
0B!
#910000
14
1@
10!
1A!
1i
1B!
14!
01!
15!
1N!
1O!
0]!
0P!
0R!
16!
0m
0`"
0)!
0S!
0K
1c"
0%
1M"
0P"
1R"
1S"
0Q"
1O"
#920000
04
0@
00!
0A!
0i
0B!
#930000
14
1@
10!
1A!
1i
1B!
04!
17!
1F!
11!
0J!
0N!
1R!
1L!
1H!
1m
0M!
1`"
1)!
1S!
1K
0c"
1%
#940000
04
0@
00!
0A!
0i
0B!
#950000
14
1@
10!
1A!
1i
1B!
14!
01!
05!
08!
1C!
1J!
0K!
1N!
0R!
0L!
1D!
09!
06!
0m
1M!
0`"
0)!
0S!
0K
1c"
0%
1P"
0R"
1T"
0S"
1Q"
#960000
04
0@
00!
0A!
0i
0B!
#970000
14
1@
10!
1A!
1i
1B!
04!
07!
0:!
1E!
0H!
1L!
0F!
11!
1G!
1K!
0M!
0N!
0O!
1P!
1R!
0L!
1H!
1m
1`"
1)!
1S!
1K
0c"
1%
#980000
04
0@
00!
0A!
0i
0B!
#990000
14
1@
10!
1A!
1i
1B!
14!
01!
15!
1M!
1N!
1O!
0P!
0R!
16!
0m
0`"
0)!
0S!
0K
1c"
0%
1R"
0T"
1U"
1W"
1S"
#1000000
04
05
0@
0A
02!
00!
0u
0A!
0i
03!
0B!
04!
0>!
0E!
0H!
0<!
11!
05!
0C!
0O!
1P!
1Q!
0D!
06!
0=!
#1010000
14
1@
10!
1A!
1i
1B!
#1020000
04
0@
00!
0A!
0i
0B!
#1030000
14
1@
10!
1A!
1i
1B!
#1040000
04
0@
00!
0A!
0i
0B!
#1050000
14
1@
10!
1A!
1i
1B!
#1060000
04
0@
00!
0A!
0i
0B!
#1070000
14
1@
10!
1A!
1i
1B!
#1080000
04
0@
00!
0A!
0i
0B!
#1090000
14
1@
10!
1A!
1i
1B!
#1100000
04
0@
00!
0A!
0i
0B!
#1110000
14
1@
10!
1A!
1i
1B!
#1120000
04
0@
00!
0A!
0i
0B!
#1130000
14
1@
10!
1A!
1i
1B!
#1140000
04
0@
00!
0A!
0i
0B!
#1150000
14
1@
10!
1A!
1i
1B!
#1160000
04
0@
00!
0A!
0i
0B!
#1170000
14
1@
10!
1A!
1i
1B!
#1180000
04
0@
00!
0A!
0i
0B!
#1190000
14
1@
10!
1A!
1i
1B!
#1200000
04
0@
00!
0A!
0i
0B!
#1210000
14
1@
10!
1A!
1i
1B!
#1220000
04
0@
00!
0A!
0i
0B!
#1230000
14
1@
10!
1A!
1i
1B!
#1240000
04
0@
00!
0A!
0i
0B!
#1250000
14
1@
10!
1A!
1i
1B!
#1260000
04
0@
00!
0A!
0i
0B!
#1270000
14
1@
10!
1A!
1i
1B!
#1280000
04
0@
00!
0A!
0i
0B!
#1290000
14
1@
10!
1A!
1i
1B!
#1300000
04
0@
00!
0A!
0i
0B!
#1310000
14
1@
10!
1A!
1i
1B!
#1320000
04
0@
00!
0A!
0i
0B!
#1330000
14
1@
10!
1A!
1i
1B!
#1340000
04
0@
00!
0A!
0i
0B!
#1350000
14
1@
10!
1A!
1i
1B!
#1360000
04
0@
00!
0A!
0i
0B!
#1370000
14
1@
10!
1A!
1i
1B!
#1380000
04
0@
00!
0A!
0i
0B!
#1390000
14
1@
10!
1A!
1i
1B!
#1400000
04
0@
00!
0A!
0i
0B!
#1410000
14
1@
10!
1A!
1i
1B!
#1420000
04
0@
00!
0A!
0i
0B!
#1430000
14
1@
10!
1A!
1i
1B!
#1440000
04
0@
00!
0A!
0i
0B!
#1450000
14
1@
10!
1A!
1i
1B!
#1460000
04
0@
00!
0A!
0i
0B!
#1470000
14
1@
10!
1A!
1i
1B!
#1480000
04
0@
00!
0A!
0i
0B!
#1490000
14
1@
10!
1A!
1i
1B!
#1500000
04
15
0@
1A
12!
00!
1u
0A!
0i
13!
0B!
0Y!
1Z!
1'!
0&!
1\!
1G
0F
1/!
1)
0(
1Q
1,
#1510000
14
1@
10!
1A!
1i
1B!
14!
01!
15!
1O!
0P!
0Q!
16!
#1520000
04
0@
00!
0A!
0i
0B!
#1530000
14
1@
10!
1A!
1i
1B!
04!
17!
11!
0J!
1P!
1]!
1^!
0>"
0F"
0H"
0J"
0L"
1Q!
0j"
1*!
0@"
0D"
0O"
0Q"
0S"
0W"
1\"
1^"
1L
1/
#1540000
04
0@
00!
0A!
0i
0B!
#1550000
14
1@
10!
1A!
1i
1B!
14!
01!
05!
18!
0G!
1J!
0K!
0P!
0Q!
1L!
19!
06!
0M!
0N!
1R!
1m
1S!
0c"
#1560000
04
0@
00!
0A!
0i
0B!
#1570000
14
1@
10!
1A!
1i
1B!
04!
07!
1:!
0L!
11!
1K!
0O!
1P!
1M!
1N!
1Q!
0R!
0m
0S!
1c"
0?"
0A"
0E"
0G"
0I"
0K"
0M"
0P"
0R"
0U"
1]"
1_"
1$!
1D
1+
#1580000
04
0@
00!
0A!
0i
0B!
#1590000
14
1@
10!
1A!
1i
1B!
14!
01!
15!
1O!
0]!
0^!
1>"
0P!
16!
1j"
0*!
0Q!
0B"
1D"
0\"
0L
0/
#1600000
04
0@
00!
0A!
0i
0B!
#1610000
14
1@
10!
1A!
1i
1B!
04!
17!
1F!
11!
0J!
1L!
1H!
0M!
0N!
1R!
1m
1`"
1)!
1S!
1K
0c"
1%
#1620000
04
0@
00!
0A!
0i
0B!
#1630000
14
1@
10!
1A!
1i
1B!
14!
01!
05!
08!
1C!
1J!
0K!
0L!
1D!
09!
06!
1M!
1N!
0R!
0m
0`"
0)!
0S!
0K
1c"
0%
1?"
0C"
1E"
0]"
0^"
1F"
0D"
1@"
#1640000
04
0@
00!
0A!
0i
0B!
